Exploratory Data Analysis – mysite
…
# A tibble: 1 × 3
   FIPS State County
  <int> <int>  <int>
1  3278    53   1947

Here there is not the same number of unique observations for all datasets, so lets find which values are missing.

Find differences in FIPS

anti_join(jobs2_tidy, county2, by="FIPS") %>% 
  group_by(FIPS)

# A tibble: 530 × 6
# Groups:   FIPS [53]
   FIPS  State County        UnemploymentRate PctEmployed_TYPE PercentEmployed
   <chr> <chr> <chr>                    <dbl> <fct>                      <dbl>
 1 00000 US    United States             4.94 Agriculture                1.28 
 2 00000 US    United States             4.94 Mining                     0.544
 3 00000 US    United States             4.94 Construction               6.47 
 4 00000 US    United States             4.94 Manufacturing             10.2  
 5 00000 US    United States             4.94 Trade                     13.9  
 6 00000 US    United States             4.94 Trans                      5.23 
 7 00000 US    United States             4.94 Information                2.07 
 8 00000 US    United States             4.94 FIRE                       6.56 
 9 00000 US    United States             4.94 Services                  49.1  
10 00000 US    United States             4.94 Govt                       4.64 
# ℹ 520 more rows

anti_join(income2, county2, by="FIPS") %>% 
  group_by(FIPS)

# A tibble: 53 × 6
# Groups:   FIPS [53]
   FIPS  State County               PerCapitaInc PerDeepPov PerChildrenDeepPov
   <chr> <chr> <chr>                       <dbl>      <dbl>              <dbl>
 1 00000 US    United States               32621       6.25               8.60
 2 01000 AL    Alabama                     26846       7.61              11.6 
 3 02000 AK    Alaska                      35874       4.94               6.31
 4 04000 AZ    Arizona                     29265       7.50              10.2 
 5 05000 AR    Arkansas                    25635       7.25              10.3 
 6 06000 CA    California                  35021       6.25               8.04
 7 08000 CO    Colorado                    36415       4.97               5.75
 8 09000 CT    Connecticut                 43056       4.67               6.29
 9 10000 DE    Delaware                    33989       5.44               6.97
10 11000 DC    District of Columbia        53321       9.20              13.6 
# ℹ 43 more rows
…
county2 %>% 
  filter(!complete.cases(county2)) %>% 
  group_by(FIPS) %>% 
  slice(0:1)

# A tibble: 82 × 5
# Groups:   FIPS [82]
   FIPS  State County                          type  County_type
   <chr> <chr> <chr>                           <fct> <fct>      
 1 02010 AK    Aleutian Islands                <NA>  <NA>       
 2 02201 AK    Prince of Wales-Outer Ketchikan <NA>  <NA>       
 3 02232 AK    Skagway-Hoonah-Angoon           <NA>  <NA>       
 4 02280 AK    Wrangell-Petersburg             <NA>  <NA>       
 5 72001 PR    Adjuntas                        <NA>  <NA>       
 6 72003 PR    Aguada                          <NA>  <NA>       
 7 72005 PR    Aguadilla                       <NA>  <NA>       
 8 72007 PR    Aguas Buenas                    <NA>  <NA>       
 9 72009 PR    Aibonito                        <NA>  <NA>       
10 72011 PR    Añasco                          <NA>  <NA>       
# ℹ 72 more rows
…
data %>% 
  na.omit %>% 
  group_by(State, County_type) %>% 
  count() %>% 
  group_by(State) %>% 
  mutate(MajorityOfCountiesType=County_type,totalCountiesInState=sum(n), 
         majority_county_count=n) %>% 
  select(-n,-County_type) %>%  
  group_by(State) %>% 
  filter( majority_county_count==max(majority_county_count) ) %>% 
  mutate(percent_county_type=round(majority_county_count/totalCountiesInState,4)*100) %>% 
  arrange(desc(percent_county_type))

# A tibble: 55 × 5
# Groups:   State [51]
   State MajorityOfCountiesType     totalCountiesInState majority_county_count
   <chr> <fct>                                     <int>                 <int>
 1 DC    FedStagovernment-dependent                    1                     1
 2 CT    Nonspecialized                                8                     7
 3 NJ    Nonspecialized                               21                    16
 4 ND    farm-dependent                               53                    35
 5 MA    Nonspecialized                               14                     9
 6 NE    farm-dependent                               93                    58
 7 SD    farm-dependent                               66                    41
 8 MS    Nonspecialized                               82                    50
 9 RI    Nonspecialized                                5                     3
10 VT    Recreation                                   14                     8
# ℹ 45 more rows
# ℹ 1 more variable: percent_county_type <dbl>
…
